{
  "name": "OrigDatablock",
  "description": "Container list all files and their attributes which make up a dataset. Usually Filled at the time the datasets metadata is created in the data catalog. Can be used by subsequent archiving processes to create the archived datasets.",
  "base": "Ownable",
  "strict": true,
  "idInjection": true,
  "indexes": {
    "datasetId_index": {
      "keys": {
        "datasetId": 1
      }
    }
  },
  "options": {
    "validateUpsert": true
  },
  "properties": {
    "id": {
      "type": "string",
      "required": true,
      "description": "Automatically created ID"
    },
    "size": {
      "type": "number",
      "required": true,
      "index": true,
      "description": "Total size in bytes of all files contained in the dataFileList"
    },
    "dataFileList": {
      "type": [
        "Datafile"
      ],
      "required": true,
      "description": "List of files contained in the linked dataset. Files can be regular files, folders and softlinks. All file paths are relative paths with respect to the sourceFolder location of the linked dataset."
    }
  },
  "validations": [],
  "relations": {
    "dataset": {
      "type": "belongsTo",
      "model": "Dataset",
      "foreignKey": "",
      "required": true
    }
  },
  "acls": [
    {
      "accessType": "*",
      "principalType": "ROLE",
      "principalId": "$everyone",
      "permission": "DENY"
    },
    {
      "accessType": "*",
      "principalType": "ROLE",
      "principalId": "admin",
      "permission": "ALLOW"
    },
    {
      "accessType": "*",
      "principalType": "ROLE",
      "principalId": "ingestor",
      "permission": "ALLOW"
    },
    {
      "accessType": "*",
      "principalType": "ROLE",
      "principalId": "archivemanager",
      "permission": "ALLOW"
    },
    {
      "accessType": "READ",
      "principalType": "ROLE",
      "principalId": "admin",
      "permission": "ALLOW"
    }
  ],
  "methods": {}
}
